%YAML 1.1
%TAG !u! tag:unity3d.com,2011:
--- !u!29 &1
OcclusionCullingSettings:
  m_ObjectHideFlags: 0
  serializedVersion: 2
  m_OcclusionBakeSettings:
    smallestOccluder: 5
    smallestHole: 0.25
    backfaceThreshold: 100
  m_SceneGUID: 00000000000000000000000000000000
  m_OcclusionCullingData: {fileID: 0}
--- !u!104 &2
RenderSettings:
  m_ObjectHideFlags: 0
  serializedVersion: 9
  m_Fog: 0
  m_FogColor: {r: 0.5, g: 0.5, b: 0.5, a: 1}
  m_FogMode: 3
  m_FogDensity: 0.01
  m_LinearFogStart: 0
  m_LinearFogEnd: 300
  m_AmbientSkyColor: {r: 0.212, g: 0.227, b: 0.259, a: 1}
  m_AmbientEquatorColor: {r: 0.114, g: 0.125, b: 0.133, a: 1}
  m_AmbientGroundColor: {r: 0.047, g: 0.043, b: 0.035, a: 1}
  m_AmbientIntensity: 1
  m_AmbientMode: 0
  m_SubtractiveShadowColor: {r: 0.42, g: 0.478, b: 0.627, a: 1}
  m_SkyboxMaterial: {fileID: 10304, guid: 0000000000000000f000000000000000, type: 0}
  m_HaloStrength: 0.5
  m_FlareStrength: 1
  m_FlareFadeSpeed: 3
  m_HaloTexture: {fileID: 0}
  m_SpotCookie: {fileID: 10001, guid: 0000000000000000e000000000000000, type: 0}
  m_DefaultReflectionMode: 0
  m_DefaultReflectionResolution: 128
  m_ReflectionBounces: 1
  m_ReflectionIntensity: 1
  m_CustomReflection: {fileID: 0}
  m_Sun: {fileID: 170076734}
  m_IndirectSpecularColor: {r: 0.44657898, g: 0.4964133, b: 0.5748178, a: 1}
  m_UseRadianceAmbientProbe: 0
--- !u!157 &3
LightmapSettings:
  m_ObjectHideFlags: 0
  serializedVersion: 11
  m_GIWorkflowMode: 0
  m_GISettings:
    serializedVersion: 2
    m_BounceScale: 1
    m_IndirectOutputScale: 1
    m_AlbedoBoost: 1
    m_EnvironmentLightingMode: 0
    m_EnableBakedLightmaps: 1
    m_EnableRealtimeLightmaps: 0
  m_LightmapEditorSettings:
    serializedVersion: 10
    m_Resolution: 2
    m_BakeResolution: 10
    m_AtlasSize: 512
    m_AO: 0
    m_AOMaxDistance: 1
    m_CompAOExponent: 1
    m_CompAOExponentDirect: 0
    m_Padding: 2
    m_LightmapParameters: {fileID: 0}
    m_LightmapsBakeMode: 1
    m_TextureCompression: 1
    m_FinalGather: 0
    m_FinalGatherFiltering: 1
    m_FinalGatherRayCount: 256
    m_ReflectionCompression: 2
    m_MixedBakeMode: 2
    m_BakeBackend: 1
    m_PVRSampling: 1
    m_PVRDirectSampleCount: 32
    m_PVRSampleCount: 256
    m_PVRBounces: 2
    m_PVRFilterTypeDirect: 0
    m_PVRFilterTypeIndirect: 0
    m_PVRFilterTypeAO: 0
    m_PVRFilteringMode: 1
    m_PVRCulling: 1
    m_PVRFilteringGaussRadiusDirect: 1
    m_PVRFilteringGaussRadiusIndirect: 5
    m_PVRFilteringGaussRadiusAO: 2
    m_PVRFilteringAtrousPositionSigmaDirect: 0.5
    m_PVRFilteringAtrousPositionSigmaIndirect: 2
    m_PVRFilteringAtrousPositionSigmaAO: 1
    m_ShowResolutionOverlay: 1
  m_LightingDataAsset: {fileID: 0}
  m_UseShadowmask: 1
--- !u!196 &4
NavMeshSettings:
  serializedVersion: 2
  m_ObjectHideFlags: 0
  m_BuildSettings:
    serializedVersion: 2
    agentTypeID: 0
    agentRadius: 0.5
    agentHeight: 2
    agentSlope: 45
    agentClimb: 0.4
    ledgeDropHeight: 0
    maxJumpAcrossDistance: 0
    minRegionArea: 2
    manualCellSize: 0
    cellSize: 0.16666667
    manualTileSize: 0
    tileSize: 256
    accuratePlacement: 0
    debug:
      m_Flags: 0
  m_NavMeshData: {fileID: 0}
--- !u!1 &170076733
GameObject:
  m_ObjectHideFlags: 0
  m_CorrespondingSourceObject: {fileID: 0}
  m_PrefabInstance: {fileID: 0}
  m_PrefabAsset: {fileID: 0}
  serializedVersion: 6
  m_Component:
  - component: {fileID: 170076735}
  - component: {fileID: 170076734}
  m_Layer: 0
  m_Name: Directional Light
  m_TagString: Untagged
  m_Icon: {fileID: 0}
  m_NavMeshLayer: 0
  m_StaticEditorFlags: 0
  m_IsActive: 1
--- !u!108 &170076734
Light:
  m_ObjectHideFlags: 0
  m_CorrespondingSourceObject: {fileID: 0}
  m_PrefabInstance: {fileID: 0}
  m_PrefabAsset: {fileID: 0}
  m_GameObject: {fileID: 170076733}
  m_Enabled: 1
  serializedVersion: 8
  m_Type: 1
  m_Color: {r: 1, g: 0.95686275, b: 0.8392157, a: 1}
  m_Intensity: 1
  m_Range: 10
  m_SpotAngle: 30
  m_CookieSize: 10
  m_Shadows:
    m_Type: 2
    m_Resolution: -1
    m_CustomResolution: -1
    m_Strength: 1
    m_Bias: 0.05
    m_NormalBias: 0.4
    m_NearPlane: 0.2
  m_Cookie: {fileID: 0}
  m_DrawHalo: 0
  m_Flare: {fileID: 0}
  m_RenderMode: 0
  m_CullingMask:
    serializedVersion: 2
    m_Bits: 4294967295
  m_Lightmapping: 1
  m_LightShadowCasterMode: 0
  m_AreaSize: {x: 1, y: 1}
  m_BounceIntensity: 1
  m_ColorTemperature: 6570
  m_UseColorTemperature: 0
  m_ShadowRadius: 0
  m_ShadowAngle: 0
--- !u!4 &170076735
Transform:
  m_ObjectHideFlags: 0
  m_CorrespondingSourceObject: {fileID: 0}
  m_PrefabInstance: {fileID: 0}
  m_PrefabAsset: {fileID: 0}
  m_GameObject: {fileID: 170076733}
  m_LocalRotation: {x: 0.40821788, y: -0.23456968, z: 0.10938163, w: 0.8754261}
  m_LocalPosition: {x: 0, y: 3, z: 0}
  m_LocalScale: {x: 1, y: 1, z: 1}
  m_Children: []
  m_Father: {fileID: 0}
  m_RootOrder: 1
  m_LocalEulerAnglesHint: {x: 50, y: -30, z: 0}
--- !u!1001 &534952671
PrefabInstance:
  m_ObjectHideFlags: 0
  serializedVersion: 2
  m_Modification:
    m_TransformParent: {fileID: 0}
    m_Modifications:
    - target: {fileID: 1205614443198496, guid: f855683b127eede4c9d170be2672ae27, type: 3}
      propertyPath: m_Name
      value: Colonial Ship (1)
      objectReference: {fileID: 0}
    - target: {fileID: 4816409469987462, guid: f855683b127eede4c9d170be2672ae27, type: 3}
      propertyPath: m_LocalPosition.x
      value: -112.5
      objectReference: {fileID: 0}
    - target: {fileID: 4816409469987462, guid: f855683b127eede4c9d170be2672ae27, type: 3}
      propertyPath: m_LocalPosition.y
      value: -0
      objectReference: {fileID: 0}
    - target: {fileID: 4816409469987462, guid: f855683b127eede4c9d170be2672ae27, type: 3}
      propertyPath: m_LocalPosition.z
      value: 109.1
      objectReference: {fileID: 0}
    - target: {fileID: 4816409469987462, guid: f855683b127eede4c9d170be2672ae27, type: 3}
      propertyPath: m_LocalRotation.x
      value: 0
      objectReference: {fileID: 0}
    - target: {fileID: 4816409469987462, guid: f855683b127eede4c9d170be2672ae27, type: 3}
      propertyPath: m_LocalRotation.y
      value: 0.7071068
      objectReference: {fileID: 0}
    - target: {fileID: 4816409469987462, guid: f855683b127eede4c9d170be2672ae27, type: 3}
      propertyPath: m_LocalRotation.z
      value: 0
      objectReference: {fileID: 0}
    - target: {fileID: 4816409469987462, guid: f855683b127eede4c9d170be2672ae27, type: 3}
      propertyPath: m_LocalRotation.w
      value: 0.7071068
      objectReference: {fileID: 0}
    - target: {fileID: 4816409469987462, guid: f855683b127eede4c9d170be2672ae27, type: 3}
      propertyPath: m_RootOrder
      value: 7
      objectReference: {fileID: 0}
    - target: {fileID: 4816409469987462, guid: f855683b127eede4c9d170be2672ae27, type: 3}
      propertyPath: m_LocalEulerAnglesHint.x
      value: 0
      objectReference: {fileID: 0}
    - target: {fileID: 4816409469987462, guid: f855683b127eede4c9d170be2672ae27, type: 3}
      propertyPath: m_LocalEulerAnglesHint.y
      value: 90
      objectReference: {fileID: 0}
    - target: {fileID: 4816409469987462, guid: f855683b127eede4c9d170be2672ae27, type: 3}
      propertyPath: m_LocalEulerAnglesHint.z
      value: 0
      objectReference: {fileID: 0}
    - target: {fileID: 1779225202, guid: f855683b127eede4c9d170be2672ae27, type: 3}
      propertyPath: speed
      value: 15
      objectReference: {fileID: 0}
    - target: {fileID: 1779225202, guid: f855683b127eede4c9d170be2672ae27, type: 3}
      propertyPath: forcedDirection.x
      value: 1
      objectReference: {fileID: 0}
    - target: {fileID: 1779225202, guid: f855683b127eede4c9d170be2672ae27, type: 3}
      propertyPath: canMove
      value: 1
      objectReference: {fileID: 0}
    - target: {fileID: 1779225202, guid: f855683b127eede4c9d170be2672ae27, type: 3}
      propertyPath: forceDirection
      value: 1
      objectReference: {fileID: 0}
    m_RemovedComponents: []
  m_SourcePrefab: {fileID: 100100000, guid: f855683b127eede4c9d170be2672ae27, type: 3}
--- !u!1 &534952672 stripped
GameObject:
  m_CorrespondingSourceObject: {fileID: 1205614443198496, guid: f855683b127eede4c9d170be2672ae27,
    type: 3}
  m_PrefabInstance: {fileID: 534952671}
  m_PrefabAsset: {fileID: 0}
--- !u!65 &534952673
BoxCollider:
  m_ObjectHideFlags: 0
  m_CorrespondingSourceObject: {fileID: 0}
  m_PrefabInstance: {fileID: 0}
  m_PrefabAsset: {fileID: 0}
  m_GameObject: {fileID: 534952672}
  m_Material: {fileID: 0}
  m_IsTrigger: 1
  m_Enabled: 1
  serializedVersion: 2
  m_Size: {x: 22, y: 20, z: 80}
  m_Center: {x: 0, y: 0, z: 0}
--- !u!1 &580441128
GameObject:
  m_ObjectHideFlags: 0
  m_CorrespondingSourceObject: {fileID: 0}
  m_PrefabInstance: {fileID: 0}
  m_PrefabAsset: {fileID: 0}
  serializedVersion: 6
  m_Component:
  - component: {fileID: 580441131}
  - component: {fileID: 580441130}
  - component: {fileID: 580441129}
  m_Layer: 0
  m_Name: EventSystem
  m_TagString: Untagged
  m_Icon: {fileID: 0}
  m_NavMeshLayer: 0
  m_StaticEditorFlags: 0
  m_IsActive: 1
--- !u!114 &580441129
MonoBehaviour:
  m_ObjectHideFlags: 0
  m_CorrespondingSourceObject: {fileID: 0}
  m_PrefabInstance: {fileID: 0}
  m_PrefabAsset: {fileID: 0}
  m_GameObject: {fileID: 580441128}
  m_Enabled: 1
  m_EditorHideFlags: 0
  m_Script: {fileID: 1077351063, guid: f70555f144d8491a825f0804e09c671c, type: 3}
  m_Name: 
  m_EditorClassIdentifier: 
  m_HorizontalAxis: Horizontal
  m_VerticalAxis: Vertical
  m_SubmitButton: Submit
  m_CancelButton: Cancel
  m_InputActionsPerSecond: 10
  m_RepeatDelay: 0.5
  m_ForceModuleActive: 0
--- !u!114 &580441130
MonoBehaviour:
  m_ObjectHideFlags: 0
  m_CorrespondingSourceObject: {fileID: 0}
  m_PrefabInstance: {fileID: 0}
  m_PrefabAsset: {fileID: 0}
  m_GameObject: {fileID: 580441128}
  m_Enabled: 1
  m_EditorHideFlags: 0
  m_Script: {fileID: -619905303, guid: f70555f144d8491a825f0804e09c671c, type: 3}
  m_Name: 
  m_EditorClassIdentifier: 
  m_FirstSelected: {fileID: 0}
  m_sendNavigationEvents: 1
  m_DragThreshold: 10
--- !u!4 &580441131
Transform:
  m_ObjectHideFlags: 0
  m_CorrespondingSourceObject: {fileID: 0}
  m_PrefabInstance: {fileID: 0}
  m_PrefabAsset: {fileID: 0}
  m_GameObject: {fileID: 580441128}
  m_LocalRotation: {x: 0, y: 0, z: 0, w: 1}
  m_LocalPosition: {x: 0, y: 0, z: 0}
  m_LocalScale: {x: 1, y: 1, z: 1}
  m_Children: []
  m_Father: {fileID: 0}
  m_RootOrder: 2
  m_LocalEulerAnglesHint: {x: 0, y: 0, z: 0}
--- !u!1001 &843877323
PrefabInstance:
  m_ObjectHideFlags: 0
  serializedVersion: 2
  m_Modification:
    m_TransformParent: {fileID: 0}
    m_Modifications:
    - target: {fileID: 6992852496602601415, guid: 99cc7ec753e5c564c90410d5dc630751,
        type: 3}
      propertyPath: m_Name
      value: HUD
      objectReference: {fileID: 0}
    - target: {fileID: 6992852496602601435, guid: 99cc7ec753e5c564c90410d5dc630751,
        type: 3}
      propertyPath: m_LocalPosition.x
      value: 0
      objectReference: {fileID: 0}
    - target: {fileID: 6992852496602601435, guid: 99cc7ec753e5c564c90410d5dc630751,
        type: 3}
      propertyPath: m_LocalPosition.y
      value: 0
      objectReference: {fileID: 0}
    - target: {fileID: 6992852496602601435, guid: 99cc7ec753e5c564c90410d5dc630751,
        type: 3}
      propertyPath: m_LocalPosition.z
      value: 0
      objectReference: {fileID: 0}
    - target: {fileID: 6992852496602601435, guid: 99cc7ec753e5c564c90410d5dc630751,
        type: 3}
      propertyPath: m_LocalRotation.x
      value: 0
      objectReference: {fileID: 0}
    - target: {fileID: 6992852496602601435, guid: 99cc7ec753e5c564c90410d5dc630751,
        type: 3}
      propertyPath: m_LocalRotation.y
      value: 0
      objectReference: {fileID: 0}
    - target: {fileID: 6992852496602601435, guid: 99cc7ec753e5c564c90410d5dc630751,
        type: 3}
      propertyPath: m_LocalRotation.z
      value: 0
      objectReference: {fileID: 0}
    - target: {fileID: 6992852496602601435, guid: 99cc7ec753e5c564c90410d5dc630751,
        type: 3}
      propertyPath: m_LocalRotation.w
      value: 1
      objectReference: {fileID: 0}
    - target: {fileID: 6992852496602601435, guid: 99cc7ec753e5c564c90410d5dc630751,
        type: 3}
      propertyPath: m_RootOrder
      value: 9
      objectReference: {fileID: 0}
    - target: {fileID: 6992852496602601435, guid: 99cc7ec753e5c564c90410d5dc630751,
        type: 3}
      propertyPath: m_LocalEulerAnglesHint.x
      value: 0
      objectReference: {fileID: 0}
    - target: {fileID: 6992852496602601435, guid: 99cc7ec753e5c564c90410d5dc630751,
        type: 3}
      propertyPath: m_LocalEulerAnglesHint.y
      value: 0
      objectReference: {fileID: 0}
    - target: {fileID: 6992852496602601435, guid: 99cc7ec753e5c564c90410d5dc630751,
        type: 3}
      propertyPath: m_LocalEulerAnglesHint.z
      value: 0
      objectReference: {fileID: 0}
    - target: {fileID: 6992852496602601435, guid: 99cc7ec753e5c564c90410d5dc630751,
        type: 3}
      propertyPath: m_AnchoredPosition.x
      value: 0
      objectReference: {fileID: 0}
    - target: {fileID: 6992852496602601435, guid: 99cc7ec753e5c564c90410d5dc630751,
        type: 3}
      propertyPath: m_AnchoredPosition.y
      value: 0
      objectReference: {fileID: 0}
    - target: {fileID: 6992852496602601435, guid: 99cc7ec753e5c564c90410d5dc630751,
        type: 3}
      propertyPath: m_SizeDelta.x
      value: 0
      objectReference: {fileID: 0}
    - target: {fileID: 6992852496602601435, guid: 99cc7ec753e5c564c90410d5dc630751,
        type: 3}
      propertyPath: m_SizeDelta.y
      value: 0
      objectReference: {fileID: 0}
    - target: {fileID: 6992852496602601435, guid: 99cc7ec753e5c564c90410d5dc630751,
        type: 3}
      propertyPath: m_AnchorMin.x
      value: 0
      objectReference: {fileID: 0}
    - target: {fileID: 6992852496602601435, guid: 99cc7ec753e5c564c90410d5dc630751,
        type: 3}
      propertyPath: m_AnchorMin.y
      value: 0
      objectReference: {fileID: 0}
    - target: {fileID: 6992852496602601435, guid: 99cc7ec753e5c564c90410d5dc630751,
        type: 3}
      propertyPath: m_AnchorMax.x
      value: 0
      objectReference: {fileID: 0}
    - target: {fileID: 6992852496602601435, guid: 99cc7ec753e5c564c90410d5dc630751,
        type: 3}
      propertyPath: m_AnchorMax.y
      value: 0
      objectReference: {fileID: 0}
    - target: {fileID: 6992852496602601435, guid: 99cc7ec753e5c564c90410d5dc630751,
        type: 3}
      propertyPath: m_Pivot.x
      value: 0
      objectReference: {fileID: 0}
    - target: {fileID: 6992852496602601435, guid: 99cc7ec753e5c564c90410d5dc630751,
        type: 3}
      propertyPath: m_Pivot.y
      value: 0
      objectReference: {fileID: 0}
    - target: {fileID: 3035345199178987243, guid: 99cc7ec753e5c564c90410d5dc630751,
        type: 3}
      propertyPath: m_AnchoredPosition.y
      value: -0.40961838
      objectReference: {fileID: 0}
    - target: {fileID: 271534315581520917, guid: 99cc7ec753e5c564c90410d5dc630751,
        type: 3}
      propertyPath: m_AnchoredPosition.x
      value: 0.099975586
      objectReference: {fileID: 0}
    - target: {fileID: 271534315581520917, guid: 99cc7ec753e5c564c90410d5dc630751,
        type: 3}
      propertyPath: m_AnchoredPosition.y
      value: -0.44999695
      objectReference: {fileID: 0}
    m_RemovedComponents: []
  m_SourcePrefab: {fileID: 100100000, guid: 99cc7ec753e5c564c90410d5dc630751, type: 3}
--- !u!1001 &1051810307
PrefabInstance:
  m_ObjectHideFlags: 0
  serializedVersion: 2
  m_Modification:
    m_TransformParent: {fileID: 0}
    m_Modifications:
    - target: {fileID: 145808, guid: e05b3e8a9e80e034c86657cc7993378e, type: 3}
      propertyPath: m_Name
      value: Player
      objectReference: {fileID: 0}
    - target: {fileID: 430372, guid: e05b3e8a9e80e034c86657cc7993378e, type: 3}
      propertyPath: m_LocalPosition.x
      value: 0
      objectReference: {fileID: 0}
    - target: {fileID: 430372, guid: e05b3e8a9e80e034c86657cc7993378e, type: 3}
      propertyPath: m_LocalPosition.y
      value: 0
      objectReference: {fileID: 0}
    - target: {fileID: 430372, guid: e05b3e8a9e80e034c86657cc7993378e, type: 3}
      propertyPath: m_LocalPosition.z
      value: 44.61
      objectReference: {fileID: 0}
    - target: {fileID: 430372, guid: e05b3e8a9e80e034c86657cc7993378e, type: 3}
      propertyPath: m_LocalRotation.x
      value: 0
      objectReference: {fileID: 0}
    - target: {fileID: 430372, guid: e05b3e8a9e80e034c86657cc7993378e, type: 3}
      propertyPath: m_LocalRotation.y
      value: 0
      objectReference: {fileID: 0}
    - target: {fileID: 430372, guid: e05b3e8a9e80e034c86657cc7993378e, type: 3}
      propertyPath: m_LocalRotation.z
      value: 0
      objectReference: {fileID: 0}
    - target: {fileID: 430372, guid: e05b3e8a9e80e034c86657cc7993378e, type: 3}
      propertyPath: m_LocalRotation.w
      value: 1
      objectReference: {fileID: 0}
    - target: {fileID: 430372, guid: e05b3e8a9e80e034c86657cc7993378e, type: 3}
      propertyPath: m_RootOrder
      value: 0
      objectReference: {fileID: 0}
    - target: {fileID: 430372, guid: e05b3e8a9e80e034c86657cc7993378e, type: 3}
      propertyPath: m_LocalEulerAnglesHint.x
      value: 0
      objectReference: {fileID: 0}
    - target: {fileID: 430372, guid: e05b3e8a9e80e034c86657cc7993378e, type: 3}
      propertyPath: m_LocalEulerAnglesHint.y
      value: 0
      objectReference: {fileID: 0}
    - target: {fileID: 430372, guid: e05b3e8a9e80e034c86657cc7993378e, type: 3}
      propertyPath: m_LocalEulerAnglesHint.z
      value: 0
      objectReference: {fileID: 0}
    m_RemovedComponents: []
  m_SourcePrefab: {fileID: 100100000, guid: e05b3e8a9e80e034c86657cc7993378e, type: 3}
--- !u!1001 &1292092470
PrefabInstance:
  m_ObjectHideFlags: 0
  serializedVersion: 2
  m_Modification:
    m_TransformParent: {fileID: 0}
    m_Modifications:
    - target: {fileID: 8988854536384928616, guid: a874835c96ba68a4fa868b20f7d88cd1,
        type: 3}
      propertyPath: m_Name
      value: Main Camera (1)
      objectReference: {fileID: 0}
    - target: {fileID: 8988854536384928631, guid: a874835c96ba68a4fa868b20f7d88cd1,
        type: 3}
      propertyPath: m_LocalPosition.x
      value: 0
      objectReference: {fileID: 0}
    - target: {fileID: 8988854536384928631, guid: a874835c96ba68a4fa868b20f7d88cd1,
        type: 3}
      propertyPath: m_LocalPosition.y
      value: 287.6
      objectReference: {fileID: 0}
    - target: {fileID: 8988854536384928631, guid: a874835c96ba68a4fa868b20f7d88cd1,
        type: 3}
      propertyPath: m_LocalPosition.z
      value: 64
      objectReference: {fileID: 0}
    - target: {fileID: 8988854536384928631, guid: a874835c96ba68a4fa868b20f7d88cd1,
        type: 3}
      propertyPath: m_LocalRotation.x
      value: 0.6427876
      objectReference: {fileID: 0}
    - target: {fileID: 8988854536384928631, guid: a874835c96ba68a4fa868b20f7d88cd1,
        type: 3}
      propertyPath: m_LocalRotation.y
      value: 0
      objectReference: {fileID: 0}
    - target: {fileID: 8988854536384928631, guid: a874835c96ba68a4fa868b20f7d88cd1,
        type: 3}
      propertyPath: m_LocalRotation.z
      value: 0
      objectReference: {fileID: 0}
    - target: {fileID: 8988854536384928631, guid: a874835c96ba68a4fa868b20f7d88cd1,
        type: 3}
      propertyPath: m_LocalRotation.w
      value: 0.7660445
      objectReference: {fileID: 0}
    - target: {fileID: 8988854536384928631, guid: a874835c96ba68a4fa868b20f7d88cd1,
        type: 3}
      propertyPath: m_RootOrder
      value: 11
      objectReference: {fileID: 0}
    - target: {fileID: 8988854536384928631, guid: a874835c96ba68a4fa868b20f7d88cd1,
        type: 3}
      propertyPath: m_LocalEulerAnglesHint.x
      value: 80
      objectReference: {fileID: 0}
    - target: {fileID: 8988854536384928631, guid: a874835c96ba68a4fa868b20f7d88cd1,
        type: 3}
      propertyPath: m_LocalEulerAnglesHint.y
      value: 0
      objectReference: {fileID: 0}
    - target: {fileID: 8988854536384928631, guid: a874835c96ba68a4fa868b20f7d88cd1,
        type: 3}
      propertyPath: m_LocalEulerAnglesHint.z
      value: 0
      objectReference: {fileID: 0}
    m_RemovedComponents: []
  m_SourcePrefab: {fileID: 100100000, guid: a874835c96ba68a4fa868b20f7d88cd1, type: 3}
--- !u!1001 &1485913517
PrefabInstance:
  m_ObjectHideFlags: 0
  serializedVersion: 2
  m_Modification:
    m_TransformParent: {fileID: 0}
    m_Modifications:
    - target: {fileID: 6599374092689824366, guid: 1c516269d6ccfaa4bb66b2d9e827bbdd,
        type: 3}
      propertyPath: m_Name
      value: CurrentIceberg
      objectReference: {fileID: 0}
    - target: {fileID: 6599374092689824354, guid: 1c516269d6ccfaa4bb66b2d9e827bbdd,
        type: 3}
      propertyPath: m_LocalPosition.x
      value: 46.3
      objectReference: {fileID: 0}
    - target: {fileID: 6599374092689824354, guid: 1c516269d6ccfaa4bb66b2d9e827bbdd,
        type: 3}
      propertyPath: m_LocalPosition.y
      value: 5.8
      objectReference: {fileID: 0}
    - target: {fileID: 6599374092689824354, guid: 1c516269d6ccfaa4bb66b2d9e827bbdd,
        type: 3}
      propertyPath: m_LocalPosition.z
      value: 188.1
      objectReference: {fileID: 0}
    - target: {fileID: 6599374092689824354, guid: 1c516269d6ccfaa4bb66b2d9e827bbdd,
        type: 3}
      propertyPath: m_LocalRotation.x
      value: 0
      objectReference: {fileID: 0}
    - target: {fileID: 6599374092689824354, guid: 1c516269d6ccfaa4bb66b2d9e827bbdd,
        type: 3}
      propertyPath: m_LocalRotation.y
      value: 0
      objectReference: {fileID: 0}
    - target: {fileID: 6599374092689824354, guid: 1c516269d6ccfaa4bb66b2d9e827bbdd,
        type: 3}
      propertyPath: m_LocalRotation.z
      value: 0
      objectReference: {fileID: 0}
    - target: {fileID: 6599374092689824354, guid: 1c516269d6ccfaa4bb66b2d9e827bbdd,
        type: 3}
      propertyPath: m_LocalRotation.w
      value: 1
      objectReference: {fileID: 0}
    - target: {fileID: 6599374092689824354, guid: 1c516269d6ccfaa4bb66b2d9e827bbdd,
        type: 3}
      propertyPath: m_RootOrder
      value: 5
      objectReference: {fileID: 0}
    - target: {fileID: 6599374092689824354, guid: 1c516269d6ccfaa4bb66b2d9e827bbdd,
        type: 3}
      propertyPath: m_LocalEulerAnglesHint.x
      value: 0
      objectReference: {fileID: 0}
    - target: {fileID: 6599374092689824354, guid: 1c516269d6ccfaa4bb66b2d9e827bbdd,
        type: 3}
      propertyPath: m_LocalEulerAnglesHint.y
      value: 0
      objectReference: {fileID: 0}
    - target: {fileID: 6599374092689824354, guid: 1c516269d6ccfaa4bb66b2d9e827bbdd,
        type: 3}
      propertyPath: m_LocalEulerAnglesHint.z
      value: 0
      objectReference: {fileID: 0}
    - target: {fileID: 6599374092689824353, guid: 1c516269d6ccfaa4bb66b2d9e827bbdd,
        type: 3}
      propertyPath: m_Size.x
      value: 2
      objectReference: {fileID: 0}
    - target: {fileID: 6599374092689824353, guid: 1c516269d6ccfaa4bb66b2d9e827bbdd,
        type: 3}
      propertyPath: m_Size.y
      value: 2
      objectReference: {fileID: 0}
    - target: {fileID: 6599374092689824353, guid: 1c516269d6ccfaa4bb66b2d9e827bbdd,
        type: 3}
      propertyPath: m_Size.z
      value: 2
      objectReference: {fileID: 0}
    - target: {fileID: 8925137590946178036, guid: 1c516269d6ccfaa4bb66b2d9e827bbdd,
        type: 3}
      propertyPath: canMove
      value: 1
      objectReference: {fileID: 0}
    - target: {fileID: 8925137590946178036, guid: 1c516269d6ccfaa4bb66b2d9e827bbdd,
        type: 3}
      propertyPath: waterResistance
      value: 80
      objectReference: {fileID: 0}
    m_RemovedComponents: []
  m_SourcePrefab: {fileID: 100100000, guid: 1c516269d6ccfaa4bb66b2d9e827bbdd, type: 3}
--- !u!1001 &1718258572
PrefabInstance:
  m_ObjectHideFlags: 0
  serializedVersion: 2
  m_Modification:
    m_TransformParent: {fileID: 0}
    m_Modifications:
    - target: {fileID: 1875202527798139344, guid: 0034784423a2e9941a2449b6139d1bfc,
        type: 3}
      propertyPath: m_Name
      value: AudioManager
      objectReference: {fileID: 0}
    - target: {fileID: 1875202527798139351, guid: 0034784423a2e9941a2449b6139d1bfc,
        type: 3}
      propertyPath: m_LocalPosition.x
      value: -5
      objectReference: {fileID: 0}
    - target: {fileID: 1875202527798139351, guid: 0034784423a2e9941a2449b6139d1bfc,
        type: 3}
      propertyPath: m_LocalPosition.y
      value: 18
      objectReference: {fileID: 0}
    - target: {fileID: 1875202527798139351, guid: 0034784423a2e9941a2449b6139d1bfc,
        type: 3}
      propertyPath: m_LocalPosition.z
      value: 2
      objectReference: {fileID: 0}
    - target: {fileID: 1875202527798139351, guid: 0034784423a2e9941a2449b6139d1bfc,
        type: 3}
      propertyPath: m_LocalRotation.x
      value: 0
      objectReference: {fileID: 0}
    - target: {fileID: 1875202527798139351, guid: 0034784423a2e9941a2449b6139d1bfc,
        type: 3}
      propertyPath: m_LocalRotation.y
      value: 0
      objectReference: {fileID: 0}
    - target: {fileID: 1875202527798139351, guid: 0034784423a2e9941a2449b6139d1bfc,
        type: 3}
      propertyPath: m_LocalRotation.z
      value: 0
      objectReference: {fileID: 0}
    - target: {fileID: 1875202527798139351, guid: 0034784423a2e9941a2449b6139d1bfc,
        type: 3}
      propertyPath: m_LocalRotation.w
      value: 1
      objectReference: {fileID: 0}
    - target: {fileID: 1875202527798139351, guid: 0034784423a2e9941a2449b6139d1bfc,
        type: 3}
      propertyPath: m_RootOrder
      value: 10
      objectReference: {fileID: 0}
    - target: {fileID: 1875202527798139351, guid: 0034784423a2e9941a2449b6139d1bfc,
        type: 3}
      propertyPath: m_LocalEulerAnglesHint.x
      value: 0
      objectReference: {fileID: 0}
    - target: {fileID: 1875202527798139351, guid: 0034784423a2e9941a2449b6139d1bfc,
        type: 3}
      propertyPath: m_LocalEulerAnglesHint.y
      value: 0
      objectReference: {fileID: 0}
    - target: {fileID: 1875202527798139351, guid: 0034784423a2e9941a2449b6139d1bfc,
        type: 3}
      propertyPath: m_LocalEulerAnglesHint.z
      value: 0
      objectReference: {fileID: 0}
    m_RemovedComponents: []
  m_SourcePrefab: {fileID: 100100000, guid: 0034784423a2e9941a2449b6139d1bfc, type: 3}
--- !u!1001 &1779225200
PrefabInstance:
  m_ObjectHideFlags: 0
  serializedVersion: 2
  m_Modification:
    m_TransformParent: {fileID: 0}
    m_Modifications:
    - target: {fileID: 1205614443198496, guid: f855683b127eede4c9d170be2672ae27, type: 3}
      propertyPath: m_Name
      value: Colonial Ship
      objectReference: {fileID: 0}
    - target: {fileID: 4816409469987462, guid: f855683b127eede4c9d170be2672ae27, type: 3}
      propertyPath: m_LocalPosition.x
      value: 140.3
      objectReference: {fileID: 0}
    - target: {fileID: 4816409469987462, guid: f855683b127eede4c9d170be2672ae27, type: 3}
      propertyPath: m_LocalPosition.y
      value: -0
      objectReference: {fileID: 0}
    - target: {fileID: 4816409469987462, guid: f855683b127eede4c9d170be2672ae27, type: 3}
      propertyPath: m_LocalPosition.z
      value: 158.9
      objectReference: {fileID: 0}
    - target: {fileID: 4816409469987462, guid: f855683b127eede4c9d170be2672ae27, type: 3}
      propertyPath: m_LocalRotation.x
      value: 0
      objectReference: {fileID: 0}
    - target: {fileID: 4816409469987462, guid: f855683b127eede4c9d170be2672ae27, type: 3}
      propertyPath: m_LocalRotation.y
      value: -0.7071068
      objectReference: {fileID: 0}
    - target: {fileID: 4816409469987462, guid: f855683b127eede4c9d170be2672ae27, type: 3}
      propertyPath: m_LocalRotation.z
      value: 0
      objectReference: {fileID: 0}
    - target: {fileID: 4816409469987462, guid: f855683b127eede4c9d170be2672ae27, type: 3}
      propertyPath: m_LocalRotation.w
      value: 0.7071068
      objectReference: {fileID: 0}
    - target: {fileID: 4816409469987462, guid: f855683b127eede4c9d170be2672ae27, type: 3}
      propertyPath: m_RootOrder
      value: 6
      objectReference: {fileID: 0}
    - target: {fileID: 4816409469987462, guid: f855683b127eede4c9d170be2672ae27, type: 3}
      propertyPath: m_LocalEulerAnglesHint.x
      value: 0
      objectReference: {fileID: 0}
    - target: {fileID: 4816409469987462, guid: f855683b127eede4c9d170be2672ae27, type: 3}
      propertyPath: m_LocalEulerAnglesHint.y
      value: -90
      objectReference: {fileID: 0}
    - target: {fileID: 4816409469987462, guid: f855683b127eede4c9d170be2672ae27, type: 3}
      propertyPath: m_LocalEulerAnglesHint.z
      value: 0
      objectReference: {fileID: 0}
    - target: {fileID: 1779225202, guid: f855683b127eede4c9d170be2672ae27, type: 3}
      propertyPath: speed
      value: 10
      objectReference: {fileID: 0}
    - target: {fileID: 1779225202, guid: f855683b127eede4c9d170be2672ae27, type: 3}
      propertyPath: forcedDirection.x
      value: -1
      objectReference: {fileID: 0}
    - target: {fileID: 1779225202, guid: f855683b127eede4c9d170be2672ae27, type: 3}
      propertyPath: canMove
      value: 1
      objectReference: {fileID: 0}
    - target: {fileID: 1779225202, guid: f855683b127eede4c9d170be2672ae27, type: 3}
      propertyPath: forceDirection
      value: 1
      objectReference: {fileID: 0}
    m_RemovedComponents: []
  m_SourcePrefab: {fileID: 100100000, guid: f855683b127eede4c9d170be2672ae27, type: 3}
--- !u!1 &1779225201 stripped
GameObject:
  m_CorrespondingSourceObject: {fileID: 1205614443198496, guid: f855683b127eede4c9d170be2672ae27,
    type: 3}
  m_PrefabInstance: {fileID: 1779225200}
  m_PrefabAsset: {fileID: 0}
--- !u!65 &1779225202
BoxCollider:
  m_ObjectHideFlags: 0
  m_CorrespondingSourceObject: {fileID: 0}
  m_PrefabInstance: {fileID: 0}
  m_PrefabAsset: {fileID: 0}
  m_GameObject: {fileID: 1779225201}
  m_Material: {fileID: 0}
  m_IsTrigger: 1
  m_Enabled: 1
  serializedVersion: 2
  m_Size: {x: 22, y: 20, z: 80}
  m_Center: {x: 0, y: 0, z: 0}
--- !u!1001 &1940406726
PrefabInstance:
  m_ObjectHideFlags: 0
  serializedVersion: 2
  m_Modification:
    m_TransformParent: {fileID: 0}
    m_Modifications:
    - target: {fileID: 233655474516837766, guid: 1c09a6f1219736f458faa5ef27a85e4f,
        type: 3}
      propertyPath: m_Name
      value: Water
      objectReference: {fileID: 0}
    - target: {fileID: 233655474516837770, guid: 1c09a6f1219736f458faa5ef27a85e4f,
        type: 3}
      propertyPath: m_LocalPosition.x
      value: 0
      objectReference: {fileID: 0}
    - target: {fileID: 233655474516837770, guid: 1c09a6f1219736f458faa5ef27a85e4f,
        type: 3}
      propertyPath: m_LocalPosition.y
      value: 0
      objectReference: {fileID: 0}
    - target: {fileID: 233655474516837770, guid: 1c09a6f1219736f458faa5ef27a85e4f,
        type: 3}
      propertyPath: m_LocalPosition.z
      value: 0
      objectReference: {fileID: 0}
    - target: {fileID: 233655474516837770, guid: 1c09a6f1219736f458faa5ef27a85e4f,
        type: 3}
      propertyPath: m_LocalRotation.x
      value: 0
      objectReference: {fileID: 0}
    - target: {fileID: 233655474516837770, guid: 1c09a6f1219736f458faa5ef27a85e4f,
        type: 3}
      propertyPath: m_LocalRotation.y
      value: 0
      objectReference: {fileID: 0}
    - target: {fileID: 233655474516837770, guid: 1c09a6f1219736f458faa5ef27a85e4f,
        type: 3}
      propertyPath: m_LocalRotation.z
      value: 0
      objectReference: {fileID: 0}
    - target: {fileID: 233655474516837770, guid: 1c09a6f1219736f458faa5ef27a85e4f,
        type: 3}
      propertyPath: m_LocalRotation.w
      value: 1
      objectReference: {fileID: 0}
    - target: {fileID: 233655474516837770, guid: 1c09a6f1219736f458faa5ef27a85e4f,
        type: 3}
      propertyPath: m_RootOrder
      value: 12
      objectReference: {fileID: 0}
    - target: {fileID: 233655474516837770, guid: 1c09a6f1219736f458faa5ef27a85e4f,
        type: 3}
      propertyPath: m_LocalEulerAnglesHint.x
      value: 0
      objectReference: {fileID: 0}
    - target: {fileID: 233655474516837770, guid: 1c09a6f1219736f458faa5ef27a85e4f,
        type: 3}
      propertyPath: m_LocalEulerAnglesHint.y
      value: 0
      objectReference: {fileID: 0}
    - target: {fileID: 233655474516837770, guid: 1c09a6f1219736f458faa5ef27a85e4f,
        type: 3}
      propertyPath: m_LocalEulerAnglesHint.z
      value: 0
      objectReference: {fileID: 0}
    m_RemovedComponents: []
  m_SourcePrefab: {fileID: 100100000, guid: 1c09a6f1219736f458faa5ef27a85e4f, type: 3}
--- !u!1001 &4132301377821140023
PrefabInstance:
  m_ObjectHideFlags: 0
  serializedVersion: 2
  m_Modification:
    m_TransformParent: {fileID: 0}
    m_Modifications:
    - target: {fileID: 4132301377627010854, guid: b952f3c0b343696418e9087baaa76f15,
        type: 3}
      propertyPath: m_Name
      value: GameManager
      objectReference: {fileID: 0}
    - target: {fileID: 4132301377627010852, guid: b952f3c0b343696418e9087baaa76f15,
        type: 3}
      propertyPath: m_LocalPosition.x
      value: 1000
      objectReference: {fileID: 0}
    - target: {fileID: 4132301377627010852, guid: b952f3c0b343696418e9087baaa76f15,
        type: 3}
      propertyPath: m_LocalPosition.y
      value: 1000
      objectReference: {fileID: 0}
    - target: {fileID: 4132301377627010852, guid: b952f3c0b343696418e9087baaa76f15,
        type: 3}
      propertyPath: m_LocalPosition.z
      value: 1000
      objectReference: {fileID: 0}
    - target: {fileID: 4132301377627010852, guid: b952f3c0b343696418e9087baaa76f15,
        type: 3}
      propertyPath: m_LocalRotation.x
      value: 0
      objectReference: {fileID: 0}
    - target: {fileID: 4132301377627010852, guid: b952f3c0b343696418e9087baaa76f15,
        type: 3}
      propertyPath: m_LocalRotation.y
      value: 0
      objectReference: {fileID: 0}
    - target: {fileID: 4132301377627010852, guid: b952f3c0b343696418e9087baaa76f15,
        type: 3}
      propertyPath: m_LocalRotation.z
      value: 0
      objectReference: {fileID: 0}
    - target: {fileID: 4132301377627010852, guid: b952f3c0b343696418e9087baaa76f15,
        type: 3}
      propertyPath: m_LocalRotation.w
      value: 1
      objectReference: {fileID: 0}
    - target: {fileID: 4132301377627010852, guid: b952f3c0b343696418e9087baaa76f15,
        type: 3}
      propertyPath: m_RootOrder
      value: 4
      objectReference: {fileID: 0}
    - target: {fileID: 4132301377627010852, guid: b952f3c0b343696418e9087baaa76f15,
        type: 3}
      propertyPath: m_LocalEulerAnglesHint.x
      value: 0
      objectReference: {fileID: 0}
    - target: {fileID: 4132301377627010852, guid: b952f3c0b343696418e9087baaa76f15,
        type: 3}
      propertyPath: m_LocalEulerAnglesHint.y
      value: 0
      objectReference: {fileID: 0}
    - target: {fileID: 4132301377627010852, guid: b952f3c0b343696418e9087baaa76f15,
        type: 3}
      propertyPath: m_LocalEulerAnglesHint.z
      value: 0
      objectReference: {fileID: 0}
    - target: {fileID: 4132301377627010853, guid: b952f3c0b343696418e9087baaa76f15,
        type: 3}
      propertyPath: matchTime
      value: 30
      objectReference: {fileID: 0}
    - target: {fileID: 4132301377627010853, guid: b952f3c0b343696418e9087baaa76f15,
        type: 3}
      propertyPath: currentSpeed
      value: 100
      objectReference: {fileID: 0}
    - target: {fileID: 4132301377627010853, guid: b952f3c0b343696418e9087baaa76f15,
        type: 3}
      propertyPath: startMatchDelay
      value: 1
      objectReference: {fileID: 0}
    - target: {fileID: 4132301377627010853, guid: b952f3c0b343696418e9087baaa76f15,
        type: 3}
      propertyPath: currentDirection.x
      value: -1
      objectReference: {fileID: 0}
    - target: {fileID: 4132301377627010853, guid: b952f3c0b343696418e9087baaa76f15,
        type: 3}
      propertyPath: isTutorial
      value: 1
      objectReference: {fileID: 0}
    - target: {fileID: 4132301377627010853, guid: b952f3c0b343696418e9087baaa76f15,
        type: 3}
      propertyPath: currentDirection.y
      value: 0
      objectReference: {fileID: 0}
    - target: {fileID: 4132301377627010853, guid: b952f3c0b343696418e9087baaa76f15,
        type: 3}
      propertyPath: currentDirection.z
      value: 0
      objectReference: {fileID: 0}
    - target: {fileID: 4132301377627010853, guid: b952f3c0b343696418e9087baaa76f15,
        type: 3}
      propertyPath: levelIndex
      value: 2
      objectReference: {fileID: 0}
    - target: {fileID: 4132301377627010853, guid: b952f3c0b343696418e9087baaa76f15,
        type: 3}
      propertyPath: barrelsInScene
      value: 1
      objectReference: {fileID: 0}
    - target: {fileID: 4132301377627010853, guid: b952f3c0b343696418e9087baaa76f15,
        type: 3}
      propertyPath: usableSlings
      value: 2
      objectReference: {fileID: 0}
    - target: {fileID: 4132301377627010853, guid: b952f3c0b343696418e9087baaa76f15,
        type: 3}
      propertyPath: tutorialMessage
      value: Collect the barrels in the level to get a perfect score!
      objectReference: {fileID: 0}
    m_RemovedComponents: []
  m_SourcePrefab: {fileID: 100100000, guid: b952f3c0b343696418e9087baaa76f15, type: 3}
--- !u!1001 &5654238820356710175
PrefabInstance:
  m_ObjectHideFlags: 0
  serializedVersion: 2
  m_Modification:
    m_TransformParent: {fileID: 0}
    m_Modifications:
    - target: {fileID: 5654238818874792657, guid: e09bf335e46befe449bd02964b142ec6,
        type: 3}
      propertyPath: m_Name
      value: Treasure
      objectReference: {fileID: 0}
    - target: {fileID: 5654238818874792655, guid: e09bf335e46befe449bd02964b142ec6,
        type: 3}
      propertyPath: m_LocalPosition.x
      value: -27.9
      objectReference: {fileID: 0}
    - target: {fileID: 5654238818874792655, guid: e09bf335e46befe449bd02964b142ec6,
        type: 3}
      propertyPath: m_LocalPosition.y
      value: 0
      objectReference: {fileID: 0}
    - target: {fileID: 5654238818874792655, guid: e09bf335e46befe449bd02964b142ec6,
        type: 3}
      propertyPath: m_LocalPosition.z
      value: 169.9
      objectReference: {fileID: 0}
    - target: {fileID: 5654238818874792655, guid: e09bf335e46befe449bd02964b142ec6,
        type: 3}
      propertyPath: m_LocalRotation.x
      value: -0
      objectReference: {fileID: 0}
    - target: {fileID: 5654238818874792655, guid: e09bf335e46befe449bd02964b142ec6,
        type: 3}
      propertyPath: m_LocalRotation.y
      value: -0.38812447
      objectReference: {fileID: 0}
    - target: {fileID: 5654238818874792655, guid: e09bf335e46befe449bd02964b142ec6,
        type: 3}
      propertyPath: m_LocalRotation.z
      value: -0
      objectReference: {fileID: 0}
    - target: {fileID: 5654238818874792655, guid: e09bf335e46befe449bd02964b142ec6,
        type: 3}
      propertyPath: m_LocalRotation.w
      value: 0.92160696
      objectReference: {fileID: 0}
    - target: {fileID: 5654238818874792655, guid: e09bf335e46befe449bd02964b142ec6,
        type: 3}
      propertyPath: m_RootOrder
      value: 3
      objectReference: {fileID: 0}
    - target: {fileID: 5654238818874792655, guid: e09bf335e46befe449bd02964b142ec6,
        type: 3}
      propertyPath: m_LocalEulerAnglesHint.x
      value: 0
      objectReference: {fileID: 0}
    - target: {fileID: 5654238818874792655, guid: e09bf335e46befe449bd02964b142ec6,
        type: 3}
      propertyPath: m_LocalEulerAnglesHint.y
      value: -45.676003
      objectReference: {fileID: 0}
    - target: {fileID: 5654238818874792655, guid: e09bf335e46befe449bd02964b142ec6,
        type: 3}
      propertyPath: m_LocalEulerAnglesHint.z
      value: 0
      objectReference: {fileID: 0}
    m_RemovedComponents: []
  m_SourcePrefab: {fileID: 100100000, guid: e09bf335e46befe449bd02964b142ec6, type: 3}
--- !u!1001 &5814279028816469775
PrefabInstance:
  m_ObjectHideFlags: 0
  serializedVersion: 2
  m_Modification:
    m_TransformParent: {fileID: 0}
    m_Modifications:
    - target: {fileID: 5815991391496287086, guid: 9aaef6bb025406c4498466553065320a,
        type: 3}
      propertyPath: m_Name
      value: Barrel
      objectReference: {fileID: 0}
    - target: {fileID: 5809749244379259838, guid: 9aaef6bb025406c4498466553065320a,
        type: 3}
      propertyPath: m_LocalPosition.x
      value: 11.2
      objectReference: {fileID: 0}
    - target: {fileID: 5809749244379259838, guid: 9aaef6bb025406c4498466553065320a,
        type: 3}
      propertyPath: m_LocalPosition.y
      value: -4.1
      objectReference: {fileID: 0}
    - target: {fileID: 5809749244379259838, guid: 9aaef6bb025406c4498466553065320a,
        type: 3}
      propertyPath: m_LocalPosition.z
      value: 128.3
      objectReference: {fileID: 0}
    - target: {fileID: 5809749244379259838, guid: 9aaef6bb025406c4498466553065320a,
        type: 3}
      propertyPath: m_LocalRotation.x
      value: 0.23822099
      objectReference: {fileID: 0}
    - target: {fileID: 5809749244379259838, guid: 9aaef6bb025406c4498466553065320a,
        type: 3}
      propertyPath: m_LocalRotation.y
      value: 0.008168798
      objectReference: {fileID: 0}
    - target: {fileID: 5809749244379259838, guid: 9aaef6bb025406c4498466553065320a,
        type: 3}
      propertyPath: m_LocalRotation.z
      value: -0.09152968
      objectReference: {fileID: 0}
    - target: {fileID: 5809749244379259838, guid: 9aaef6bb025406c4498466553065320a,
        type: 3}
      propertyPath: m_LocalRotation.w
      value: 0.96685386
      objectReference: {fileID: 0}
    - target: {fileID: 5809749244379259838, guid: 9aaef6bb025406c4498466553065320a,
        type: 3}
      propertyPath: m_RootOrder
      value: 8
      objectReference: {fileID: 0}
    - target: {fileID: 5809749244379259838, guid: 9aaef6bb025406c4498466553065320a,
        type: 3}
      propertyPath: m_LocalEulerAnglesHint.x
      value: 27.526001
      objectReference: {fileID: 0}
    - target: {fileID: 5809749244379259838, guid: 9aaef6bb025406c4498466553065320a,
        type: 3}
      propertyPath: m_LocalEulerAnglesHint.y
      value: -1.797
      objectReference: {fileID: 0}
    - target: {fileID: 5809749244379259838, guid: 9aaef6bb025406c4498466553065320a,
        type: 3}
      propertyPath: m_LocalEulerAnglesHint.z
      value: -11.2560005
      objectReference: {fileID: 0}
    m_RemovedComponents: []
  m_SourcePrefab: {fileID: 100100000, guid: 9aaef6bb025406c4498466553065320a, type: 3}
